{
    "id": "isf_pcf857x",
    "required_modules": ["isf_i2c"],
    "required_libs": [
        {
            "source": "link",
            "type": "file",
            "url": "https://raw.githubusercontent.com/mcauser/micropython-pcf8575/refs/heads/master/src/pcf8575.py"
        }
    ]
}